…
```r
datum %>% 
  filter(Class == "Dothideomycetes") %>% 
  group_by(Order, Compartment, Fungicide) %>% 
  summarize(Abundance.m = 100*mean(Abundance))
```

```
## `summarise()` has grouped output by 'Order', 'Compartment'. You can override
## using the `.groups` argument.
```

```
## # A tibble: 40 × 4
## # Groups:   Order, Compartment [20]
##    Order             Compartment Fungicide Abundance.m
##    <chr>             <chr>       <chr>           <dbl>
##  1 Acrospermales     Leaf        C           0.000241 
##  2 Acrospermales     Leaf        F           0.0000414
##  3 Acrospermales     Root        C           0.000213 
##  4 Acrospermales     Root        F           0.000118 
##  5 Botryosphaeriales Leaf        C           0.0102   
##  6 Botryosphaeriales Leaf        F           0.0191   
##  7 Botryosphaeriales Root        C           0.550    
##  8 Botryosphaeriales Root        F           0.407    
##  9 Capnodiales       Leaf        C           0.175    
## 10 Capnodiales       Leaf        F           0.132    
## # … with 30 more rows
```
…
